{
    "LanguageName": "English",

    "LoadingText": "Loading...",
    "OkButton": "OK",
    "CancelButton": "Cancel",
    "YesButton": "Yes",
    "NoButton": "No",
    
    "TitleScreen": {
        "DemoText": "DEMO",
        "SingleplayerButton": "Singleplayer",
        "MultiplayerButton": "Multiplayer",
        "TutorialButton": "Tutorial",
        "SettingsButton": "Settings",
        "CreditsButton": "Credits",
        "QuitButton": "Quit Game"
    },
    
    "Singleplayer": {
        "YourWorldsText": "Your Worlds:",
        "NoWorldsText": "There are no worlds to load...",
        "InvalidWorldButton": "(invalid)",
        "OldWorldButton": "(old)",
        "NewWorldButton": "New World",
        "WorldConversionPopup": {
            "OldWorldVersionText": "The world \"{}\" cannot be loaded because it is using an older version of the world format ({}), which is incompatible with the current version ({}).",
            "OldWorldVersionlessText": "The world \"{}\" cannot be loaded because it is using an older version of the world format, which is incompatible with the current version.",
            "ConversionPromptText": "Would you like to convert the world to the current version? You will have the option to make a backup first."
        },
        "InvalidWorldPopup": {
            "InvalidVersionText": "The world \"{}\" cannot be loaded because it is either from a future version of 4D Miner, or it has an invalid version number."
        }
    },
    
    "CreateWorld": {
        "WorldNameText": "World Name:",
        "WorldNameInput": "New World",
        "WorldSeedText": "World Seed:",
        "FlatWorldCheckbox": "Flat World",
        "GenerateCavesCheckbox": "Generate Caves (slower)",
        "CaveSizeSlider": "Cave Size",
        "BiomeSizeSlider": "Biome Size",
        "TerrainAmplificationSlider": "Terrain Amplification",
        "CreateNewWorldButton": "Create New World!"
    },

    "WorldConverter": {
        "CloseWarningText": "DO NOT close the game!",
        "BackupWorldTitle": "(backup)",
        "BackupStatusText": "Backing up world \"{}\"...",
        "ConversionStatusText": "Converting world \"{}\" from version {} to version {}...",
        "ConversionFinishedText": "Done!",
        "BackupPopup": {
            "TitleText": "Backup \"{}\" files?",
            "PromptText": "Save data for the world \"{}\" may be corrupted by the world conversion process. Would you like to make a backup first?"
        },
        "ErrorPopup":
        {
            "TitleText": "Error!",
            "InvalidObjectText": "Unable to copy invalid object \"{}\" (expected a directory or regular file).",
            "CopyErrorText": "Unable to copy object \"{}\": \"{}\""
        }
    },
    
    "WorldGen": {
        "ProgressText": "{}/{} chunks loaded"
    },

    "Game": {
        "Chat":
        {
            "LabelText": "Chat:"
        },
        "CraftingMenu": {
            "LabelText": "Crafting:"
        }
    }
}